<?xml version="1.0" encoding="UTF-8"?>
<svg width="111px" height="115px" viewBox="0 0 111 115" version="1.1" xmlns="http://www.w3.org/2000/svg" xmlns:xlink="http://www.w3.org/1999/xlink">
    <!-- Generator: Sketch 63.1 (92452) - https://sketch.com -->
    <title>Group 55</title>
    <desc>Created with Sketch.</desc>
    <g id="Symbols" stroke="none" stroke-width="1" fill="none" fill-rule="evenodd">
        <g id="icon/topic/RealEstate" transform="translate(-13.000000, -21.000000)">
            <g id="Group-55" transform="translate(15.000000, 21.000000)">
                <path d="M12.9487,95.507525 L12.9487,95.507525 C11.77395,95.507525 10.81295,94.546525 10.81295,93.372025 L10.81295,79.968775 L15.0842,79.968775 L15.0842,93.372025 C15.0842,94.546525 14.1232,95.507525 12.9487,95.507525" id="Fill-1" fill="#0046AD"></path>
                <path d="M25.7722,66.4924 C25.7722,73.57465 20.03095,79.31615 12.9487,79.31615 C5.86645,79.31615 0.12495,73.57465 0.12495,66.4924 C0.12495,59.41015 5.86645,53.6689 12.9487,53.6689 C20.03095,53.6689 25.7722,59.41015 25.7722,66.4924" id="Fill-3" fill="#D1D8E9"></path>
                <path d="M25.7722,66.4924 C25.7722,73.57465 20.03095,79.31615 12.9487,79.31615 C5.86645,79.31615 0.12495,73.57465 0.12495,66.4924 C0.12495,59.41015 5.86645,53.6689 12.9487,53.6689 C20.03095,53.6689 25.7722,59.41015 25.7722,66.4924 Z" id="Stroke-5" stroke="#0046AD" stroke-width="3.75"></path>
                <path d="M49.6494,101.570025 C41.1254,101.570025 33.08715,98.225775 27.01465,92.153275 C20.94215,86.080775 17.5979,78.042525 17.5979,69.518525 L17.5979,33.926525 C17.5979,25.402775 20.94215,17.364275 27.01465,11.291775 C33.08715,5.219275 41.1254,1.875025 49.6494,1.875025 C58.17315,1.875025 66.21165,5.219275 72.28415,11.291775 C78.35665,17.364275 81.7009,25.402775 81.7009,33.926525 L81.7009,69.518525 C81.7009,78.042275 78.35665,86.080775 72.28415,92.153275 C66.21165,98.225775 58.17315,101.570025 49.6494,101.570025" id="Fill-7" fill="#FFFFFF"></path>
                <path d="M49.6494,0.0001 L49.6494,0.0001 C30.98965,0.0001 15.7229,15.2671 15.7229,33.9266 L15.7229,69.5186 C15.7229,88.1781 30.98965,103.4451 49.6494,103.4451 C68.3089,103.4451 83.5759,88.1781 83.5759,69.5186 L83.5759,33.9266 C83.5759,15.2671 68.3089,0.0001 49.6494,0.0001 M49.6494,3.7501 C57.6724,3.7501 65.2399,6.89935 70.95815,12.6176 C76.6764,18.33585 79.8259,25.9036 79.8259,33.9266 L79.8259,69.5186 C79.8259,77.5416 76.6764,85.1091 70.95815,90.82735 C65.2399,96.54585 57.6724,99.6951 49.6494,99.6951 C41.6264,99.6951 34.0589,96.54585 28.34065,90.8276 C22.6224,85.1091 19.4729,77.5416 19.4729,69.5186 L19.4729,33.9266 C19.4729,25.9036 22.6224,18.33585 28.34065,12.6176 C34.0589,6.89935 41.6264,3.7501 49.6494,3.7501" id="Fill-9" fill="#0046AD"></path>
                <path d="M49.6494,65.978 C31.97615,65.978 17.5979,51.59975 17.5979,33.9265 C17.5979,16.2535 31.97615,1.875 49.6494,1.875 C67.32265,1.875 81.7009,16.2535 81.7009,33.9265 C81.7009,51.59975 67.32265,65.978 49.6494,65.978" id="Fill-11" fill="#FFFFFF"></path>
                <path d="M49.6494,0.0001 C30.9124,0.0001 15.7229,15.1896 15.7229,33.9266 C15.7229,52.6636 30.9124,67.8531 49.6494,67.8531 C68.3864,67.8531 83.5759,52.6636 83.5759,33.9266 C83.5759,15.1896 68.3864,0.0001 49.6494,0.0001 M49.6494,3.7501 C57.70965,3.7501 65.2879,6.8891 70.9874,12.5886 C76.6869,18.2881 79.8259,25.8661 79.8259,33.9266 C79.8259,41.98685 76.6869,49.56485 70.9874,55.2646 C65.2879,60.9641 57.70965,64.1031 49.6494,64.1031 C41.58915,64.1031 34.0109,60.9641 28.3114,55.2646 C22.6119,49.56485 19.4729,41.98685 19.4729,33.9266 C19.4729,25.8661 22.6119,18.2881 28.3114,12.5886 C34.0109,6.8891 41.58915,3.7501 49.6494,3.7501" id="Fill-13" fill="#0046AD"></path>
                <path d="M67.600575,33.9266 C67.600575,43.84085 59.563825,51.87785 49.649325,51.87785 C39.735075,51.87785 31.698325,43.84085 31.698325,33.9266 C31.698325,24.01235 39.735075,15.97535 49.649325,15.97535 C59.563825,15.97535 67.600575,24.01235 67.600575,33.9266" id="Fill-15" fill="#D1D8E9"></path>
                <path d="M49.6494,17.8503 C40.7849,17.8503 33.57315,25.06205 33.57315,33.92655 C33.57315,42.79105 40.7849,50.0028 49.6494,50.0028 C58.5139,50.0028 65.72565,42.79105 65.72565,33.92655 C65.72565,25.06205 58.5139,17.8503 49.6494,17.8503 M49.6494,53.7528 C38.71715,53.7528 29.82315,44.8588 29.82315,33.92655 C29.82315,22.9943 38.71715,14.1003 49.6494,14.1003 C60.58165,14.1003 69.47565,22.9943 69.47565,33.92655 C69.47565,44.8588 60.58165,53.7528 49.6494,53.7528" id="Fill-17" fill="#0046AD"></path>
                <path d="M22.685025,99.51145 L22.685025,99.51145 C21.510275,99.51145 20.549275,98.55045 20.549275,97.3757 L20.549275,86.03495 L24.820525,88.28495 L24.820525,97.3757 C24.820525,98.55045 23.859525,99.51145 22.685025,99.51145" id="Fill-19" fill="#0046AD"></path>
                <path d="M34.18675,110.801 L34.18675,110.801 C33.012,110.801 32.051,109.83975 32.051,108.66525 L32.051,97.3245 L36.32225,97.3245 L36.32225,108.66525 C36.32225,109.83975 35.36125,110.801 34.18675,110.801" id="Fill-21" fill="#0046AD"></path>
                <path d="M49.6494,114.8774 L49.6494,114.8774 C48.4749,114.8774 47.51365,113.9164 47.51365,112.7419 L47.51365,101.40115 L51.78515,101.40115 L51.78515,112.7419 C51.78515,113.9164 50.8239,114.8774 49.6494,114.8774" id="Fill-23" fill="#0046AD"></path>
                <path d="M65.11205,110.20725 L65.11205,110.20725 C63.93755,110.20725 62.97655,109.24625 62.97655,108.07175 L62.97655,96.731 L67.2478,96.731 L67.2478,108.07175 C67.2478,109.24625 66.2868,110.20725 65.11205,110.20725" id="Fill-25" fill="#0046AD"></path>
                <path d="M76.64255,98.987025 L76.64255,98.987025 C75.46805,98.987025 74.50705,98.026025 74.50705,96.851525 L74.50705,89.260775 L78.7783,85.510775 L78.7783,96.851525 C78.7783,98.026025 77.8173,98.987025 76.64255,98.987025" id="Fill-27" fill="#0046AD"></path>
                <path d="M81.491425,46.39315 C81.491425,64.02165 67.235425,78.31265 49.649425,78.31265 C32.063425,78.31265 17.807425,64.02165 17.807425,46.39315" id="Stroke-29" stroke="#0046AD" stroke-width="3.75" stroke-linecap="round" stroke-linejoin="round"></path>
                <path d="M81.491425,58.280725 C81.491425,75.909475 67.235425,90.200475 49.649425,90.200475 C32.063425,90.200475 17.807425,75.909475 17.807425,58.280725" id="Stroke-31" stroke="#0046AD" stroke-width="3.75" stroke-linecap="round" stroke-linejoin="round"></path>
                <path d="M96.73825,100.2336 L96.73825,100.2336 C95.5635,100.2336 94.6025,99.2726 94.6025,98.09785 L94.6025,88.4446 L98.87375,88.4446 L98.87375,98.09785 C98.87375,99.2726 97.91275,100.2336 96.73825,100.2336" id="Fill-33" fill="#0046AD"></path>
                <path d="M106.502675,78.6799 C106.502675,84.07265 102.131175,88.44465 96.738175,88.44465 C91.345175,88.44465 86.973675,84.07265 86.973675,78.6799 C86.973675,73.28715 91.345175,68.9154 96.738175,68.9154 C102.131175,68.9154 106.502675,73.28715 106.502675,78.6799" id="Fill-35" fill="#D1D8E9"></path>
                <path d="M106.502675,78.6799 C106.502675,84.07265 102.131175,88.44465 96.738175,88.44465 C91.345175,88.44465 86.973675,84.07265 86.973675,78.6799 C86.973675,73.28715 91.345175,68.9154 96.738175,68.9154 C102.131175,68.9154 106.502675,73.28715 106.502675,78.6799 Z" id="Stroke-37" stroke="#0046AD" stroke-width="3.75"></path>
                <path d="M12.9487,101.1711 L12.9487,101.1711 C11.77395,101.1711 10.81295,100.2101 10.81295,99.03535 L10.81295,89.3821 L15.0842,89.3821 L15.0842,99.03535 C15.0842,100.2101 14.1232,101.1711 12.9487,101.1711" id="Fill-39" fill="#0046AD"></path>
                <path d="M22.7131,79.6174 C22.7131,85.01015 18.3416,89.38215 12.9486,89.38215 C7.55585,89.38215 3.1841,85.01015 3.1841,79.6174 C3.1841,74.22465 7.55585,69.8529 12.9486,69.8529 C18.3416,69.8529 22.7131,74.22465 22.7131,79.6174" id="Fill-41" fill="#D1D8E9"></path>
                <path d="M22.7131,79.6174 C22.7131,85.01015 18.3416,89.38215 12.9486,89.38215 C7.55585,89.38215 3.1841,85.01015 3.1841,79.6174 C3.1841,74.22465 7.55585,69.8529 12.9486,69.8529 C18.3416,69.8529 22.7131,74.22465 22.7131,79.6174 Z" id="Stroke-43" stroke="#0046AD" stroke-width="3.75"></path>
                <path d="M82.59275,109.195025 L82.59275,109.195025 C81.41825,109.195025 80.45725,108.234025 80.45725,107.059525 L80.45725,93.656275 L84.7285,93.656275 L84.7285,107.059525 C84.7285,108.234025 83.7675,109.195025 82.59275,109.195025" id="Fill-45" fill="#0046AD"></path>
                <path d="M96.73825,78.6799 C96.73825,86.49215 90.405,92.8254 82.59275,92.8254 C74.7805,92.8254 68.4475,86.49215 68.4475,78.6799 C68.4475,70.86765 74.7805,64.53465 82.59275,64.53465 C90.405,64.53465 96.73825,70.86765 96.73825,78.6799" id="Fill-47" fill="#D1D8E9"></path>
                <path d="M96.73825,78.6799 C96.73825,86.49215 90.405,92.8254 82.59275,92.8254 C74.7805,92.8254 68.4475,86.49215 68.4475,78.6799 C68.4475,70.86765 74.7805,64.53465 82.59275,64.53465 C90.405,64.53465 96.73825,70.86765 96.73825,78.6799 Z" id="Stroke-49" stroke="#0046AD" stroke-width="3.75"></path>
                <path d="M33.008525,38.993625 C35.675025,32.422125 42.121025,27.787875 49.649275,27.787875 C57.293025,27.787875 63.820775,32.564875 66.409775,39.296375" id="Stroke-51" stroke="#0046AD" stroke-width="3.75" stroke-linecap="round" stroke-linejoin="round"></path>
                <path d="M36.595425,46.248125 C39.868425,42.782375 44.506425,40.619375 49.649425,40.619375 C54.792425,40.619375 59.430675,42.782375 62.703425,46.248125" id="Stroke-53" stroke="#0046AD" stroke-width="3.75" stroke-linecap="round" stroke-linejoin="round"></path>
            </g>
        </g>
    </g>
</svg>