<?xml version="1.0" encoding="UTF-8"?>
<svg width="125px" height="125px" viewBox="0 0 125 125" version="1.1" xmlns="http://www.w3.org/2000/svg" xmlns:xlink="http://www.w3.org/1999/xlink">
    <!-- Generator: Sketch 63.1 (92452) - https://sketch.com -->
    <title>Group 21</title>
    <desc>Created with Sketch.</desc>
    <defs>
        <polygon id="path-1" points="0 -0.000366210937 124.999561 -0.000366210937 124.999561 124.999878 0 124.999878"></polygon>
    </defs>
    <g id="Symbols" stroke="none" stroke-width="1" fill="none" fill-rule="evenodd">
        <g id="icon/topic/Marketing" transform="translate(-6.000000, -11.000000)">
            <g id="Group-21" transform="translate(6.000000, 11.000000)">
                <polygon id="Fill-1" fill="#D1D8E9" points="50.9921387 88.3963135 72.8817871 88.3670166 68.5087402 100.224927 67.560498 122.598462 56.7064941 122.831372 57.0226562 100.457837"></polygon>
                <polygon id="Fill-2" fill="#D1D8E9" points="26.2068604 9.07253418 13.0332764 8.6489502 15.7864502 2.93044434 23.7078369 2.59157715"></polygon>
                <polygon id="Fill-3" fill="#D1D8E9" points="69.0866699 9.07253418 55.9130859 8.6489502 58.6662598 2.93044434 66.5876465 2.59157715"></polygon>
                <polygon id="Fill-4" fill="#D1D8E9" points="112.139355 9.07253418 98.9657715 8.6489502 101.718945 2.93044434 109.640332 2.59157715"></polygon>
                <g id="Group-20" transform="translate(0.000000, 0.000488)">
                    <g id="Group-7">
                        <mask id="mask-2" fill="white">
                            <use xlink:href="#path-1"></use>
                        </mask>
                        <g id="Clip-6"></g>
                        <path d="M121.330859,86.1051025 L3.66923828,86.1051025 L3.66923828,21.2811279 L121.330859,21.2811279 L121.330859,86.1051025 L121.330859,86.1051025 Z M66.7297852,98.8609619 C66.6025879,99.1160889 66.5361816,99.3963623 66.5361816,99.6815186 L66.5361816,121.3302 L58.4636719,121.3302 L58.4636719,99.6815186 C58.4636719,99.3966064 58.3972656,99.1156006 58.2698242,98.8609619 L53.7268555,89.774292 L71.272998,89.774292 L66.7297852,98.8609619 Z M57.640918,7.82751465 L59.7202637,3.66882324 L65.2800781,3.66882324 L67.3594238,7.82751465 L57.640918,7.82751465 Z M14.5881836,7.82751465 L16.6675293,3.66882324 L22.2273438,3.66882324 L24.3064453,7.82751465 L14.5881836,7.82751465 Z M102.77251,3.6685791 L108.332568,3.6685791 L110.41167,7.82727051 L100.693408,7.82727051 L102.77251,3.6685791 Z M93.6887695,17.6121826 L93.6887695,3.6685791 L98.6707031,3.6685791 L96.0842773,8.84118652 C95.4841797,10.0404053 96.3870117,11.4962158 97.7251465,11.4962158 L113.380664,11.4962158 C114.718799,11.4962158 115.621631,10.0401611 115.021533,8.84118652 L111.107715,1.0135498 C110.796924,0.391967773 110.16167,-0.000366210937 109.466846,-0.000366210937 L91.8542969,-0.000366210937 C90.8408691,-0.000366210937 90.0195801,0.820922852 90.0195801,1.83435059 L90.0195801,17.6121826 L64.3347656,17.6121826 L64.3347656,11.49646 L70.3279297,11.49646 C71.6660645,11.49646 72.5688965,10.0404053 71.9687988,8.84143066 L68.0547363,1.0135498 C67.7441895,0.391967773 67.1089355,-0.000366210937 66.4138672,-0.000366210937 L58.5859863,-0.000366210937 C57.8906738,-0.000366210937 57.2556641,0.391967773 56.944873,1.0135498 L53.0312988,8.84143066 C52.4312012,10.0406494 53.3337891,11.49646 54.672168,11.49646 L60.665332,11.49646 L60.665332,17.6121826 L34.9805176,17.6121826 L34.9805176,1.83435059 C34.9805176,0.820922852 34.1589844,-0.000366210937 33.1458008,-0.000366210937 L15.5330078,-0.000366210937 C14.8381836,-0.000366210937 14.2029297,0.391967773 13.8923828,1.0135498 L9.97832031,8.84143066 C9.37822266,10.0406494 10.2812988,11.49646 11.6194336,11.49646 L27.2749512,11.49646 C28.6130859,11.49646 29.515918,10.0404053 28.9158203,8.84143066 L26.3293945,3.66882324 L31.3108398,3.66882324 L31.3108398,17.6124268 L1.83476562,17.6124268 C0.821337891,17.6121826 -0.0001953125,18.4332275 -0.0001953125,19.4466553 L-0.0001953125,87.9400635 C-0.0001953125,88.9530029 0.821337891,89.7745361 1.83476562,89.7745361 L49.6245605,89.7745361 L54.7944824,100.115112 L54.7944824,121.330444 L33.6936523,121.330444 C32.6802246,121.330444 31.8586914,122.151978 31.8586914,123.165405 C31.8586914,124.178345 32.6802246,124.999878 33.6936523,124.999878 L92.2844727,124.999878 C93.2981445,124.999878 94.1194336,124.178345 94.1194336,123.165405 C94.1194336,122.151978 93.2981445,121.330444 92.2844727,121.330444 L70.2053711,121.330444 L70.2053711,100.115112 L75.375293,89.7745361 L123.165088,89.7745361 C124.178516,89.7745361 124.999561,88.9532471 124.999561,87.9400635 L124.999561,19.4466553 C124.999561,18.4332275 124.17876,17.6121826 123.165332,17.6121826 L93.6887695,17.6121826 Z" id="Fill-5" fill="#0046AD" mask="url(#mask-2)"></path>
                    </g>
                    <path d="M99.6819824,31.3105469 L85.983252,31.3105469 C84.9695801,31.3105469 84.1485352,32.1320801 84.1485352,33.1452637 C84.1485352,34.1584473 84.9695801,34.9799805 85.983252,34.9799805 L97.8470215,34.9799805 L97.8470215,54.7941895 L27.1526855,54.7941895 L27.1526855,34.9799805 L77.0955566,34.9799805 C78.1092285,34.9799805 78.9305176,34.1584473 78.9305176,33.1452637 C78.9305176,32.1320801 78.1092285,31.3105469 77.0955566,31.3105469 L25.3179687,31.3105469 C24.3047852,31.3105469 23.4834961,32.1320801 23.4834961,33.1452637 L23.4834961,56.6286621 C23.4834961,57.6418457 24.3047852,58.4633789 25.3179687,58.4633789 L99.6822266,58.4633789 C100.69541,58.4633789 101.516943,57.6418457 101.516943,56.6286621 L101.516943,33.1452637 C101.516943,32.1320801 100.69541,31.3105469 99.6819824,31.3105469" id="Fill-8" fill="#0046AD"></path>
                    <path d="M64.4570557,62.6218262 L25.3181396,62.6218262 C24.3047119,62.6218262 23.4834229,63.4433594 23.4834229,64.456543 C23.4834229,65.4697266 24.3047119,66.2912598 25.3181396,66.2912598 L64.4570557,66.2912598 C65.4702393,66.2912598 66.2917725,65.4697266 66.2917725,64.456543 C66.2917725,63.4433594 65.4702393,62.6218262 64.4570557,62.6218262" id="Fill-10" fill="#0046AD"></path>
                    <path d="M99.6819824,62.6218262 L72.2845215,62.6218262 C71.2713379,62.6218262 70.4500488,63.4433594 70.4500488,64.456543 C70.4500488,65.4697266 71.2713379,66.2912598 72.2845215,66.2912598 L99.6819824,66.2912598 C100.695166,66.2912598 101.516699,65.4697266 101.516699,64.456543 C101.516699,63.4433594 100.69541,62.6218262 99.6819824,62.6218262" id="Fill-12" fill="#0046AD"></path>
                    <path d="M42.9304932,70.449585 L25.3177002,70.449585 C24.3045166,70.449585 23.4832275,71.2711182 23.4832275,72.2845459 C23.4832275,73.2974854 24.3045166,74.1190186 25.3177002,74.1190186 L42.9304932,74.1190186 C43.9436768,74.1190186 44.76521,73.2974854 44.76521,72.2845459 C44.76521,71.270874 43.9439209,70.449585 42.9304932,70.449585" id="Fill-14" fill="#0046AD"></path>
                    <path d="M72.2845703,70.449585 L50.7582031,70.449585 C49.7450195,70.449585 48.9234863,71.2711182 48.9234863,72.2845459 C48.9234863,73.2974854 49.7450195,74.1190186 50.7582031,74.1190186 L72.2845703,74.1190186 C73.297998,74.1190186 74.1195313,73.2974854 74.1195313,72.2845459 C74.1195313,71.270874 73.297998,70.449585 72.2845703,70.449585" id="Fill-16" fill="#0046AD"></path>
                    <path d="M99.6819824,70.449585 L81.946875,70.449585 C80.9336914,70.449585 80.1124023,71.2711182 80.1124023,72.2845459 C80.1124023,73.2974854 80.9336914,74.1190186 81.946875,74.1190186 L99.6819824,74.1190186 C100.695166,74.1190186 101.516699,73.2974854 101.516699,72.2845459 C101.516699,71.270874 100.69541,70.449585 99.6819824,70.449585" id="Fill-18" fill="#0046AD"></path>
                </g>
            </g>
        </g>
    </g>
</svg>